﻿POSICAO;ALUNO;MATRICULA;TURMA;NOTA;TEMPO (MIN);ACERTOS;INICIO;TERMINO
1º;RAFAELA RIJO FALCAO;210375;B1 B;9.50;99.82;38;23/10/2021 20:44:54;23/10/2021 22:24:43
2º;JULIA PEREZ MACHADO DE MELO;210406;B4 B;9.50;102.40;38;23/10/2021 09:06:48;23/10/2021 10:49:12
3º;JULIA KAROLINI BARBOSA GOMES;211316;B8 III;9.50;114.47;38;22/10/2021 15:00:37;22/10/2021 16:55:05
4º;MARINA ALVES DE SANTANA;210334;B6 A;9.25;83.15;37;22/10/2021 08:58:38;22/10/2021 10:21:47
5º;TULIO BARROS DE ALMEIDA;211228;B4 B;9.25;90.80;37;23/10/2021 20:47:26;23/10/2021 22:18:14
6º;GABRIELA FERNANDA RODRIGUES DA SILVA;210786;B6 A;9.00;77.35;36;23/10/2021 21:23:40;23/10/2021 22:41:01
7º;MARIA LUISA CAVALCANTI DUARTE;210567;B4 A;9.00;86.87;36;23/10/2021 18:24:56;23/10/2021 19:51:48
8º;MARIA LETICIA COELHO FREITAS;210654;B1 C;9.00;92.83;36;23/10/2021 09:06:21;23/10/2021 10:39:11
9º;BRUNA GABRIELLE DA SILVA;210450;B7 A;8.75;58.48;35;22/10/2021 15:16:34;22/10/2021 16:15:03
10º;MARIANA DE ALMEIDA CRUZ;12529175462;;8.75;76.02;35;23/10/2021 08:50:06;23/10/2021 10:06:07
11º;PIERRE CHEVROLLIER ORIA;210423;B8 II;8.75;79.23;35;23/10/2021 13:16:39;23/10/2021 14:35:53
12º;JOAO FERNANDO PAULINO DE SOUSA;210087;;8.75;94.00;35;23/10/2021 20:17:02;23/10/2021 21:51:02
13º;LAURA HENRIQUE VILELA;210948;B8 II;8.75;97.22;35;23/10/2021 16:45:16;23/10/2021 18:22:29
14º;GUILHERME BARROS MEIRELES;210700;B5 B;8.75;103.47;35;23/10/2021 09:46:35;23/10/2021 11:30:03
15º;MARIA EDUARDA DE MELO OLIVEIRA		;210910;B7 B;8.50;31.97;34;22/10/2021 12:40:41;22/10/2021 13:12:39
16º;MARIA CLARA RIBEIRO DE SA RODRIGUES;210237;;8.50;118.42;34;23/10/2021 14:24:50;23/10/2021 16:23:15
17º;PAULO ROBERTO DE ALBUQUERQUE ISAAC FILHO;05479750402;;8.25;2.32;33;22/10/2021 15:51:20;22/10/2021 15:53:39
18º;MARIA ALTINA DE ANDRADE BONILLA;10461849461;;8.25;4.75;33;22/10/2021 14:06:38;22/10/2021 14:11:23
19º;GABRIEL MULLER SOARES DO NASCIMENTO;211178;B7 B;8.25;33.65;33;23/10/2021 10:49:30;23/10/2021 11:23:09
20º;MARIA EDUARDA PIMENTEL GOES;210673;B1 C;8.25;67.12;33;23/10/2021 11:13:44;23/10/2021 12:20:51
21º;JULIA NASCIMENTO MACIEL;210216;B4 A;8.25;75.05;33;23/10/2021 11:51:10;23/10/2021 13:06:13
22º;JULIANA DIAS ALMEIDA;211421;B8 III;8.25;75.85;33;23/10/2021 20:46:08;23/10/2021 22:01:59
23º;NALANDA LAIS DA SILVA SOUZA		;210905;B8 III;8.25;76.72;33;23/10/2021 14:44:02;23/10/2021 16:00:45
24º;LETICIA MARIA MEDEIROS;210097;B1 A;8.25;84.47;33;22/10/2021 09:41:31;22/10/2021 11:05:59
25º;FREDSON FELIPE BASTOS LOPES PEREIRA;211210;B3 B;8.25;91.57;33;23/10/2021 16:24:29;23/10/2021 17:56:03
26º;LAURA CORREIA JACINTO		;210630;B8 III;8.00;87.63;32;23/10/2021 20:15:09;23/10/2021 21:42:47
27º;MARIA FERNANDA BARBOSA DE ANDRADE;210012;B1 A;8.00;96.77;32;23/10/2021 16:30:22;23/10/2021 18:07:08
28º;LUANNA GABRIELLE MEDEIROS SANTANA;210029;B7 A;8.00;98.68;32;23/10/2021 20:40:42;23/10/2021 22:19:23
29º;MARILIA SOARES ALENCAR		;210636;B8 III;8.00;121.48;32;23/10/2021 14:38:02;23/10/2021 16:39:31
30º;CAIO MALVEIRA DE ALBUQUERQUE BARROS;211345;B8 II;7.75;72.75;31;23/10/2021 18:47:41;23/10/2021 20:00:26
31º;JOÃO MAGALHÃES;12636702458;;7.75;90.95;31;23/10/2021 14:28:01;23/10/2021 15:58:58
32º;IVANBERTO PACIFICO DE SOUZA		;211038;B8 III;7.75;91.45;31;23/10/2021 14:25:29;23/10/2021 15:56:56
33º;JOANA MARIA GOMES BARBOSA;210912;B6 C;7.75;92.53;31;22/10/2021 15:18:37;22/10/2021 16:51:09
34º;RAFAEL VINYCIUS DE LIMA MELO		;210907;B7 B;7.75;95.92;31;22/10/2021 08:39:50;22/10/2021 10:15:45
35º;MARINA;09405807480;;7.75;101.37;31;23/10/2021 09:54:54;23/10/2021 11:36:16
36º;VITOR GABRIEL PACHECO AMARANTES;210068;B1 A;7.75;106.55;31;23/10/2021 17:30:00;23/10/2021 19:16:33
37º;MARIA CAMILLA FRANCA CAETANO DE LIMA;210081;B3 A;7.75;107.58;31;22/10/2021 13:19:29;22/10/2021 15:07:04
38º;CLARA AQUINO DE FREITAS ZOVKA;210635;B3 B;7.75;114.30;31;22/10/2021 17:10:57;22/10/2021 19:05:15
39º;GIOVANNA DARA GOMES REMIGIO SOUSA		;210556;B7 B;7.75;136.80;31;22/10/2021 08:49:39;22/10/2021 11:06:27
40º;JOAO HENRIQUE DE MELO CESAR DE ALBUQUERQUE;210066;B1 A;7.50;88.47;30;22/10/2021 14:15:34;22/10/2021 15:44:02
41º;LUCAS DO CANTO MELO;211329;B8 II;7.50;111.38;30;22/10/2021 09:13:58;22/10/2021 11:05:21
42º;AMANDA ALMEIDA CAVALCANTI DE MELO;210738;B2 B;7.50;119.05;30;23/10/2021 16:02:29;23/10/2021 18:01:32
43º;GABRIELA SILVA AGUIAR;210730;B4 B;7.50;129.88;30;23/10/2021 15:02:26;23/10/2021 17:12:19
44º;ANA BEATRIZ LEITAO DE ALBUQUERQUE WANDERLEY;210568;B2 B;7.25;61.57;29;23/10/2021 14:41:09;23/10/2021 15:42:43
45º;ANA BEATRIZ ARAUJO DE MELO;210561;B5 B;7.25;82.28;29;23/10/2021 18:03:25;23/10/2021 19:25:42
46º;GIOVANNA MEDEIROS AMARAL DE OLIVEIRA;211021;B5 C;7.25;98.33;29;23/10/2021 19:28:50;23/10/2021 21:07:10
47º;JULIA DANTAS BRUNO BARROSO;210088;B1 A;7.25;100.10;29;23/10/2021 14:44:09;23/10/2021 16:24:15
48º;	YOHANNA ALENCAR FERREIRA DE ARAUJO;210817;B3 A;7.25;106.48;29;23/10/2021 20:26:43;23/10/2021 22:13:12
49º;MARIA ALICE MARQUIM CORNELIO PORTELA;210641;B2 B;7.25;108.98;29;22/10/2021 20:29:34;22/10/2021 22:18:33
50º;THAÍS KREIMER;08457985450;;7.25;110.47;29;23/10/2021 15:26:14;23/10/2021 17:16:42
51º;LAVINIA DE MELO SILVA;211336;B8 III;7.25;112.67;29;23/10/2021 10:20:06;23/10/2021 12:12:46
52º;ARTUR TAVARES DE SOUZA SOARES;210199;B1 B;7.25;118.47;29;23/10/2021 16:43:00;23/10/2021 18:41:28
53º;MARIANA ZANON DE PAULO;211308;B3 B;7.25;118.77;29;23/10/2021 14:21:32;23/10/2021 16:20:18
54º;TACIANA FREITAS ALVES BANDEIRA;210100;B6 A;7.25;150.15;29;23/10/2021 19:26:03;23/10/2021 21:56:12
55º;BEATRIZ GUIMARAES RODRIGUES;210002;B5 A;7.00;58.80;28;23/10/2021 11:41:33;23/10/2021 12:40:21
56º;PEDRO FERREIRA LIMA PIRES;211202;B2 B;7.00;61.37;28;23/10/2021 14:44:38;23/10/2021 15:46:00
57º;LETICIA DE CARVALHO COSTA;210085;B1 A;7.00;69.22;28;23/10/2021 09:51:43;23/10/2021 11:00:56
58º;PAULA LAIS BORGES DE CARVALHO		;210692;B8 III;7.00;79.02;28;22/10/2021 10:15:58;22/10/2021 11:34:59
59º;MARIA CLARA DE SA PEREIRA;211171;B8 III;7.00;82.82;28;22/10/2021 14:08:40;22/10/2021 15:31:29
60º;JAMYLLE GUERRA ALVES DA SILVA;211367;B7 A;7.00;101.78;28;23/10/2021 13:19:25;23/10/2021 15:01:12
61º;GABRIEL RESENDE PEREIRA KREIMER;211379;B10;7.00;101.90;28;23/10/2021 15:26:07;23/10/2021 17:08:01
62º;BEATRIZ BATISTA LEITAO		;211220;B8 II;7.00;176.08;28;23/10/2021 21:09:37;24/10/2021 00:05:42
63º;ANA JULIA ALVES CARDOSO;211282;B1;6.75;65.52;27;23/10/2021 20:05:55;23/10/2021 21:11:26
64º;MAYSA IZAURA LIMA BEZERRA;10700178414;;6.75;74.37;27;22/10/2021 10:28:51;22/10/2021 11:43:13
65º;ANA BEATRIZ CARNEIRO LEAO;210222;B5 A;6.75;74.87;27;23/10/2021 12:01:54;23/10/2021 13:16:46
66º;LETICIA NASCIMENTO DE ARRUDA;210856;B6 C;6.75;77.42;27;23/10/2021 17:55:12;23/10/2021 19:12:37
67º;WILLIANE DEBORA DIAS MUNIZ;210387;B6 A;6.75;102.27;27;22/10/2021 10:11:36;22/10/2021 11:53:52
68º;LUANNA ARAUJO PEREIRA CORREA MARCHI;210414;B9 A;6.50;80.02;26;23/10/2021 12:36:52;23/10/2021 13:56:53
69º;	LAYSA LETICIA GOMES FERREIRA DA SILVA;210866;B6 A;6.50;105.67;26;23/10/2021 15:19:55;23/10/2021 17:05:35
70º;KARLLA KARINNE DE LIMA;11278268405;;6.50;108.35;26;23/10/2021 14:28:24;23/10/2021 16:16:45
71º;JULIANA CARNEIRO CAVALCANTI;210924;B4 B;6.25;16.75;25;23/10/2021 18:16:04;23/10/2021 18:32:49
72º;BEATRIZ ROCHA ALBUQUERQUE;210668;B4 B;6.25;99.35;25;23/10/2021 16:40:00;23/10/2021 18:19:21
73º;ISABELLA PEREIRA SILVA;210331;B7 A;6.25;103.95;25;23/10/2021 11:13:04;23/10/2021 12:57:01
74º;BEATRIZ LEAL FREITAS SOARES;211016;B3 B;6.25;142.07;25;23/10/2021 20:19:54;23/10/2021 22:41:58
75º;RAFAELLA MARTINS;10155559427;;6.00;24.80;24;23/10/2021 19:36:18;23/10/2021 20:01:06
76º;ISABELLA PEREIRA FEITOZA;16047385451;;6.00;80.17;24;22/10/2021 17:29:30;22/10/2021 18:49:40
77º;SARAH LINS E SILVA BARBOSA;210370;B3 A;6.00;81.82;24;22/10/2021 08:37:38;22/10/2021 09:59:27
78º;BEATRIZ DOS SANTOS LIMA;12320468412;;6.00;86.97;24;23/10/2021 15:23:16;23/10/2021 16:50:14
79º;ALLANA GABRIELA DA SILVA DANTAS;210426;B7 A;6.00;106.90;24;23/10/2021 17:25:17;23/10/2021 19:12:11
80º;IASMIN PEREIRA DE MIRANDA		;210784;B8 III;5.75;122.78;23;23/10/2021 14:55:12;23/10/2021 16:57:59
81º;FELIPE CINTRA UCHOA CAMPELO COSTA FELIPE CINTRA;210471;B2 B;5.50;38.73;22;22/10/2021 09:52:08;22/10/2021 10:30:52
82º;EVYLIN NATALY LIMA DE BARROS		;210756;B8 III;5.50;78.08;22;23/10/2021 08:48:03;23/10/2021 10:06:08
83º;THAYANE RODRIGUES DE MELO;13816273408;;5.50;79.30;22;22/10/2021 17:32:09;22/10/2021 18:51:27
84º;MARIANA FREIRE CAVALCANTI BRAYNER;211388;;5.25;54.85;21;23/10/2021 12:27:34;23/10/2021 13:22:25
85º;MARIA HELOISA RODRIGUES ANDRADE FONSECA DE SENA;210724;B1 C;5.25;92.20;21;23/10/2021 17:47:16;23/10/2021 19:19:28
86º;THAIS GABRIELE ALVES DA SILVA		;210674;B8 III;5.25;92.52;21;23/10/2021 09:43:19;23/10/2021 11:15:50
87º;MARIA FERNANDA DE AZEVEDO SILVA;210416;B7 A;5.00;94.83;20;22/10/2021 14:26:53;22/10/2021 16:01:43
88º;MARCELA MARIA TAVARES RAMOS BESERRA;210254;B4 A;5.00;107.17;20;23/10/2021 22:16:17;24/10/2021 00:03:27
89º;MARIA BEATRIZ JORGE DE ARAUJO SILVA;210599;B5 b;5.00;145.63;20;23/10/2021 20:50:40;23/10/2021 23:16:18
90º;RAVI DE ALENCAR RODRIGUES;211295;B1 A;4.75;94.65;19;23/10/2021 10:37:46;23/10/2021 12:12:25
91º;BIANCA FIGUEIROA LINS;210816;B6 A;4.75;120.75;19;23/10/2021 15:55:56;23/10/2021 17:56:41
92º;TACIANA DANTAS;11832615430;;4.50;70.82;18;23/10/2021 15:43:11;23/10/2021 16:54:00
93º;RUTH AMALIA SOARES NAZARIO		;211052;B8 III;4.50;73.93;18;23/10/2021 17:00:39;23/10/2021 18:14:35
94º;FREDERICO AUGUSTO ESCOREL;08240943446;;4.50;86.47;18;23/10/2021 14:51:18;23/10/2021 16:17:46
95º;WYORRANNE TENORIO ALVES;210114;B7 A;4.25;69.97;17;23/10/2021 12:25:32;23/10/2021 13:35:30
96º;BEATRIZ NASCIMENTO DE ALMEIDA;211155;B3 B;4.00;84.08;16;22/10/2021 08:48:05;22/10/2021 10:12:10
97º;HALANA CORREIA EVANGELISTA VIEIRA;10183328477;;4.00;86.92;16;23/10/2021 08:52:33;23/10/2021 10:19:28
98º;MARIA CLARA MELO DOS SANTOS;210459;B8 III;4.00;97.97;16;23/10/2021 06:18:43;23/10/2021 07:56:41
99º;BRUNO RODRIGUES DA SILVA;71396916490;;3.75;63.97;15;23/10/2021 22:57:48;24/10/2021 00:01:46
100º;LAIS BARBOSA DE FRANÃƑÂ€¡A;211160;B5 C;3.75;69.42;15;23/10/2021 14:05:13;23/10/2021 15:14:38
101º;DAYANA GOMES;13046630433;;3.75;92.97;15;22/10/2021 15:59:18;22/10/2021 17:32:16
102º;ADRIELI DIAS PEREIRA;210825;B6 A;3.50;43.78;14;22/10/2021 13:52:50;22/10/2021 14:36:37
103º;LETICIA MAYANNE DA SILVA OLIVEIRA;210479;B7 B;3.50;148.63;14;23/10/2021 21:39:02;24/10/2021 00:07:40
104º;VITORIA HOLANDA PASSOS;210858;B6 A;3.25;97.67;13;23/10/2021 19:16:10;23/10/2021 20:53:50
105º;LUISA LEITE CARVALHO;06971804414;;3.00;44.57;12;22/10/2021 14:26:02;22/10/2021 15:10:36
106º;MARIA JOSÉ DIAS;04321479428;;3.00;88.42;12;23/10/2021 14:05:27;23/10/2021 15:33:52
107º;MEYRIELLE LETICIA CARVALHO LEITE;210809;B6 A;3.00;100.92;12;23/10/2021 11:32:55;23/10/2021 13:13:50
108º;VITORIA NEVES PETRIBU DE ALBUQUERQUE MARANHAO;211084;SSA 1;2.75;63.45;11;23/10/2021 19:56:52;23/10/2021 21:00:19
109º;ANA CAROLINE ARAUJO BEZERRA;210361;B6 A;2.75;122.78;11;23/10/2021 08:18:27;23/10/2021 10:21:14
110º;LETÍCIA MARINS;16558692724;;2.25;53.98;9;22/10/2021 10:45:41;22/10/2021 11:39:40
111º;MANUELA DE LIMA SOUZA		;211181;B8 II;1.75;80.53;7;23/10/2021 17:45:27;23/10/2021 19:05:59
112º;NORMA RAFAELLA UCHOA ESPÃƑÂNDOLA;210878;;0.00;1.53;0;23/10/2021 21:53:16;23/10/2021 21:54:48
113º;KLEBER JOSE DE PAIVA FILHO;211033;B4 B;0.00;150.07;0;23/10/2021 19:58:23;23/10/2021 22:28:27
114º;LUANA MIRELLE DA SILVA		;211043;B8 III;0.00;150.12;0;23/10/2021 16:40:53;23/10/2021 19:11:00
115º;ANA LIVIA ALMEIDA DE ARAUJO		;210875;B7 B;0.00;150.17;0;22/10/2021 17:05:15;22/10/2021 19:35:25
116º;KETHORY KHERLY DINIZ PIRES;211179;B8 III;0.00;150.38;0;23/10/2021 11:43:49;23/10/2021 14:14:12
117º;ARTHUR MOREIRA NOGUEIRA DE MELO		;211042;B8 III;0.00;152.03;0;23/10/2021 20:48:02;23/10/2021 23:20:04
118º;ANA LUIZA RIBEIRO VERAS SANTOS		;210998;B8 III;0.00;152.38;0;23/10/2021 17:59:57;23/10/2021 20:32:20
119º;CRISTYANE CLAUDINO DE MOURA QUEIROZ;211166;B4 B;0.00;164.40;0;23/10/2021 16:13:20;23/10/2021 18:57:44
120º;ANA JULIA DE PAULA MOURA ;211150;B3 B;0.00;;;22/10/2021 15:37:07;
121º;LARA EDUARDA SILVA BARBOSA;12992084603;;0.00;;;22/10/2021 17:22:30;
122º;ANA BEATRIZ MELO DE LIMA;210385;B1 B;0.00;;;23/10/2021 13:34:19;
123º;EMÍLIA VIRGINIA MOREIRA;70472280473;;0.00;;;23/10/2021 14:09:32;
124º;LAURA DANTAS SOARES;210981;B4 B;0.00;;;23/10/2021 14:48:04;
125º;LAYANE VIEIRA DE MELO;13282321406;;0.00;;;23/10/2021 20:44:59;
126º;IURY HENRIQUE CARNEIRO CRUZ;210174;B4 A;0.00;;;23/10/2021 22:13:41;
127º;BRUNO CARVALHO CORREIA DA SILVA;09496193455;;0.00;;;24/10/2021 00:13:48;
